<svg width="11" height="20" viewBox="0 0 11 20" fill="none" xmlns="http://www.w3.org/2000/svg">
<path d="M10.2 1.52588e-06H7.7C4.9 1.52588e-06 3 1.9 3 4.8V7H0.4C0.2 7 0 7.2 0 7.4V10.6C0 10.8 0.2 11 0.4 11H2.9V19.1C2.9 19.3 3.1 19.5 3.3 19.5H6.6C6.8 19.5 7 19.3 7 19.1V11H10C10.2 11 10.4 10.8 10.4 10.6V7.4C10.4 7.3 10.4 7.2 10.3 7.1C10.2 7 10.1 7 10 7H7V5.1C7 4.2 7.2 3.7 8.4 3.7H10.1C10.3 3.7 10.5 3.5 10.5 3.3V0.300001C10.6 0.200001 10.4 1.52588e-06 10.2 1.52588e-06Z" fill="white" fill-opacity="0.4"/>
</svg>
